%YAML 1.1
%TAG !u! tag:unity3d.com,2011:
--- !u!1045 &1
EditorBuildSettings:
  m_ObjectHideFlags: 0
  serializedVersion: 2
  m_Scenes:
  - enabled: 1
    path: Assets/MockUI/Scenes/MainMenuScene.unity
    guid: 2cda990e2423bbf4892e6590ba056729
  - enabled: 1
    path: Assets/MockUI/Scenes/OptionMenuScene.unity
    guid: a1f0046a4e0e4be499586420f340c9c2
  - enabled: 1
    path: Assets/MockUI/Scenes/ScoreMenuScene.unity
    guid: b5ecda9a5d02a6f42bf84878f6dd520d
  - enabled: 1
    path: Assets/MockUI/Scenes/LevelMenuScene.unity
    guid: 78648fcc036363345b2650e33dba108b
  - enabled: 1
    path: Assets/MockUI/Scenes/ExitDialogScene.unity
    guid: 03157c6139d61814e93191d838c8bc8d
  m_configObjects: {}
